Lab 9
…
StateNames_A |> 
  pivot_wider(
    names_from = `Sex at Birth`,
    values_from = Count
  ) |> 
  filter(Name == "Allison") |> 
  group_by(State) |> 
  summarize(across(
    F:M, sum)
    ) |>  
  mutate(
    across(F:M, ~replace_na(., 0))
    )

# A tibble: 51 × 3
   State     F     M
   <chr> <dbl> <dbl>
 1 AK      232     0
 2 AL     1535     0
 3 AR     1198     0
 4 AZ     1880     0
 5 CA    12413     0
 6 CO     1594     0
 7 CT     1099     0
 8 DC      321     0
 9 DE      294     0
10 FL     4455     0
# … with 41 more rows
…
